<svg width="284" height="70" xmlns="http://www.w3.org/2000/svg" version="1.1">

 <g>
  <title>Layer 1</title>
  <path id="svg_2" d="m5,5l20,0l-20,20l0,20l40,-40l20,0l-60,60l20,0l40,-40l0,20l-20,20l20,0" stroke-linejoin="round" stroke-linecap="round" stroke-width="9" stroke="#a3be8c" fill="none"/>
  <path fill="#d8dee9" id="svg_4" d="m111.24805,23.17725l-20.90479,0l0,10.01074l16.521,0l0,8.34228l-16.521,0l0,17.46973l-10.86133,0l0,-44.65576l31.76612,0l0,8.83301z"/>
  <path fill="#d8dee9" id="svg_5" d="m148.41211,23.17725l-20.90479,0l0,10.01074l16.521,0l0,8.34228l-16.521,0l0,17.46973l-10.86132,0l0,-44.65576l31.76611,0l0,8.83301z"/>
  <path fill="#d8dee9" id="svg_6" d="m167.75586,59l-8.36719,-27.71631l0,27.71631l-6.67383,0l0,-33.9917l12.40137,0l5.95166,20.34522l6.27539,-20.34522l12.42627,0l0,33.9917l-8.01855,0l0,-27.71631l-8.54151,27.71631l-5.45361,0z"/>
  <path fill="#d8dee9" id="svg_7" d="m204.63623,46.37451l0,12.62549l-8.09326,0l0,-33.9917l13.39746,0c2.98826,0.00004 5.27512,0.31962 6.8606,0.95874c1.58542,0.63919 3.0007,1.78055 4.24584,3.42407c1.24509,1.64359 1.86765,3.66067 1.86768,6.05127c-0.00003,1.67678 -0.33206,3.31204 -0.99609,4.90577c-0.66409,1.59376 -1.60208,2.84718 -2.81397,3.76025c-1.21194,0.9131 -2.3865,1.51905 -3.52368,1.81787c-1.13723,0.29884 -2.91774,0.44825 -5.34155,0.44824l-5.60303,0zm-0.27393,-6.17578l5.17969,0c1.97557,0.00002 3.3618,-0.45652 4.15869,-1.36963c0.79686,-0.91306 1.19529,-1.95896 1.19532,-3.13769c-0.00003,-1.37791 -0.44412,-2.47361 -1.33228,-3.28711c-0.8882,-0.81345 -2.23708,-1.22019 -4.04663,-1.22022l-5.15479,0l0,9.01465z"/>
  <path fill="#d8dee9" id="svg_8" d="m251.62695,31.48291l-16.21142,0l0,6.97266l12.75,0l0,6.3999l-12.75,0l0,7.4209l16.21142,0l0,6.72363l-24.30468,0l0,-33.9917l24.30468,0l0,6.47461z"/>
  <path fill="#d8dee9" id="svg_9" d="m282.9043,40.82129l0,18.17871l-3.63575,0c-0.26565,-1.27832 -0.64748,-2.58154 -1.1455,-3.90967c-2.42385,2.95508 -5.51174,4.43262 -9.26368,4.43262c-4.43262,0 -7.88159,-1.58545 -10.34692,-4.75635c-2.46533,-3.17089 -3.698,-7.27147 -3.698,-12.30176c0,-5.41208 1.31567,-9.76169 3.94702,-13.04882c2.63134,-3.28708 6.20483,-4.93063 10.72046,-4.93067c3.78514,0.00004 6.83982,1.06254 9.16407,3.1875c2.32419,2.12503 3.74362,4.95559 4.2583,8.4917l-7.57032,0.9961c-0.61428,-4.11717 -2.56496,-6.17576 -5.85205,-6.17579c-2.15821,0.00003 -3.78932,0.97537 -4.89331,2.92603c-1.10401,1.95071 -1.65601,4.73562 -1.656,8.35474c-0.00001,3.48634 0.59764,6.15088 1.79297,7.99365c1.1953,1.84278 2.89695,2.76416 5.10498,2.76416c1.42771,0 2.70188,-0.46484 3.82251,-1.39453c1.12058,-0.92968 1.68088,-2.41552 1.6809,-4.45752l-6.3999,0l0,-6.3501l13.97022,0z"/>
 </g>
</svg>